<svg xmlns="http://www.w3.org/2000/svg" width="177.706" height="12.574" viewBox="0 0 177.706 12.574">
  <g id="logo" transform="translate(-139.536 -205.82)">
    <g id="Group_1" data-name="Group 1" transform="translate(139.536 205.82)">
      <path id="Path_1" data-name="Path 1" d="M149.193,215.335h-6.112l-1.2,2.829h-2.34l5.5-12.224h2.235l5.518,12.224h-2.375Zm-.751-1.781-2.305-5.344-2.288,5.344Z" transform="translate(-139.536 -205.765)" fill="#ffffff"/>
      <path id="Path_2" data-name="Path 2" d="M153.312,205.94h2.27v10.3h6.392v1.92h-8.662Z" transform="translate(-133.264 -205.765)" fill="#ffffff"/>
      <path id="Path_3" data-name="Path 3" d="M166.557,217.582a6.014,6.014,0,0,1-2.358-2.253,6.494,6.494,0,0,1,0-6.444,6.014,6.014,0,0,1,2.358-2.253,7.4,7.4,0,0,1,6.741,0,6.044,6.044,0,0,1,2.358,2.244,6.527,6.527,0,0,1,0,6.462,6.023,6.023,0,0,1-2.358,2.244,7.4,7.4,0,0,1-6.741,0Zm5.571-1.729a3.979,3.979,0,0,0,1.537-1.537,4.643,4.643,0,0,0,0-4.417,3.973,3.973,0,0,0-1.537-1.538,4.676,4.676,0,0,0-4.4,0,3.973,3.973,0,0,0-1.537,1.538,4.643,4.643,0,0,0,0,4.417,3.979,3.979,0,0,0,1.537,1.537,4.676,4.676,0,0,0,4.4,0Z" transform="translate(-128.696 -205.82)" fill="#ffffff"/>
      <path id="Path_4" data-name="Path 4" d="M188.509,205.94v12.224H186.24v-5.239h-6.322v5.239h-2.272V205.94h2.272v5.047h6.322V205.94Z" transform="translate(-122.184 -205.765)" fill="#ffffff"/>
      <path id="Path_5" data-name="Path 5" d="M199.437,215.335h-6.112l-1.2,2.829h-2.34l5.5-12.224h2.235l5.518,12.224H200.66Zm-.751-1.781-2.305-5.344-2.288,5.344Z" transform="translate(-116.66 -205.765)" fill="#ffffff"/>
    </g>
    <g id="Group_2" data-name="Group 2" transform="translate(240.351 205.995)">
      <path id="Path_6" data-name="Path 6" d="M216.626,207.014a4.116,4.116,0,0,1,0,5.973,5.4,5.4,0,0,1-3.571,1.075H209.4v4.1h-.594V205.94h4.244A5.412,5.412,0,0,1,216.626,207.014Zm-.393,5.59a3.629,3.629,0,0,0,0-5.206,4.785,4.785,0,0,0-3.143-.915H209.4v7.036h3.685A4.793,4.793,0,0,0,216.233,212.6Z" transform="translate(-208.811 -205.94)" fill="#ffffff"/>
      <path id="Path_7" data-name="Path 7" d="M229.1,217.623v.541h-8.26V205.94h8.016v.543h-7.422v5.2h6.636v.541h-6.636v5.4Z" transform="translate(-203.337 -205.94)" fill="#ffffff"/>
      <path id="Path_8" data-name="Path 8" d="M235.451,206.483h-4.488v-.543h9.553v.543h-4.488v11.682h-.576Z" transform="translate(-198.725 -205.94)" fill="#ffffff"/>
      <path id="Path_9" data-name="Path 9" d="M251.3,218.164l-3.021-4.209a7.662,7.662,0,0,1-1.327.106H243.3v4.1h-.594V205.94h4.244a5.412,5.412,0,0,1,3.571,1.074,3.673,3.673,0,0,1,1.284,2.978,3.9,3.9,0,0,1-.76,2.454,3.956,3.956,0,0,1-2.174,1.372L252,218.164Zm-4.314-4.645a4.793,4.793,0,0,0,3.143-.915,3.629,3.629,0,0,0,0-5.206,4.785,4.785,0,0,0-3.143-.915H243.3v7.036Z" transform="translate(-193.377 -205.94)" fill="#ffffff"/>
      <path id="Path_10" data-name="Path 10" d="M263.08,214.584h-7.319l-1.642,3.58h-.645l5.658-12.224h.576l5.657,12.224h-.645Zm-.229-.506-3.423-7.457-3.439,7.457Z" transform="translate(-188.476 -205.94)" fill="#ffffff"/>
    </g>
  </g>
</svg>
