<svg xmlns="http://www.w3.org/2000/svg" width="5.453" height="14.808" viewBox="0 0 5.453 14.808">
  <g id="sipka-leva" transform="translate(0.687 14.121) rotate(-90)">
    <path id="Path_712" data-name="Path 712" d="M0,4.079,6.716,0" transform="translate(0 0)" fill="none" stroke="#000" stroke-linecap="round" stroke-width="1"/>
    <path id="Path_713" data-name="Path 713" d="M6.717,4.079,0,0" transform="translate(6.716 0)" fill="none" stroke="#000" stroke-linecap="round" stroke-width="1"/>
  </g>
</svg>
