<svg xmlns="http://www.w3.org/2000/svg" width="14.951" height="52.879" viewBox="0 0 14.951 52.879">
  <g id="sipka-dolu" transform="translate(-376.86 -734.303)">
    <g id="šipka_backtotop" transform="translate(377.913 781.049)">
      <path id="Path_712" data-name="Path 712" d="M0,0,6.421,5.079" fill="none" stroke="#000" stroke-linecap="round" stroke-width="1.5"/>
      <path id="Path_713" data-name="Path 713" d="M6.422,0,0,5.079" transform="translate(6.421)" fill="none" stroke="#000" stroke-linecap="round" stroke-width="1.5"/>
    </g>
    <path id="Path_13506" data-name="Path 13506" d="M9805.335,802.425V751.889" transform="translate(-9421 -16.836)" fill="none" stroke="#000" stroke-linecap="round" stroke-width="1.5"/>
  </g>
</svg>
