<svg xmlns="http://www.w3.org/2000/svg" width="113.205" height="110.392" viewBox="0 0 113.205 110.392">
  <g id="palma" transform="translate(158.57 41.278) rotate(120)" opacity="0.1">
    <path id="Path_2643" data-name="Path 2643" d="M101.885,76.059c-.71-11.541-4.481-18.175-8.22-21.469s-9.995-4.813-13.7-1.946a58.977,58.977,0,0,0-8.8,8.384s-.357.414-.772-1.254.073-10.9-6.746-17.106S48.13,37.107,40.6,45.188,28.662,61.744,27,66.79s-1.425,3.975,2.531,2.427,15.9-5.006,23.329-4.731,8.793,2.718,5.631,3.466-9.678-1.661-15.887-.487S28.352,71.689,26.641,73.03,21.987,87.423,26.2,96.458a48.609,48.609,0,0,1,12.991-13.43c8.2-5.524,13.831-7.7,16.9-4.359S47.6,85.393,41.485,87.324,28.851,93.5,27.061,96.477s-1.681,2.87-.913,4.159,2.41,7.809,6.47,10.206c0,0-.735-1.783,3.373-8.2s9.736-7.579,11.465-5.946.8,5.425-3.848,7.3-7.44,7.028-7.44,7.028.542,6.561,7.593,12.924c0,0,2.3,1.043,7.4-1.255s8.431-1.318,12.949-2.013a27.831,27.831,0,0,0,9-3.5s-.354-6.277-2.58-10.765-6.911-12.607-7-16.185,4.461-5.781,8.723.089,8.165,17.181,7.979,27.387a21.391,21.391,0,0,0,9-6.325c3.4-4.426,3.736-5.173,3.6-6.015s-3.537-7.49-8.4-13.287A140.249,140.249,0,0,0,73.206,80.175c-1.794-1.656-2.2-4.552.957-3.274s5.765,2.284,8.612,7.863a3.7,3.7,0,0,0,1.414,1.3A35.454,35.454,0,0,1,92.375,93.7c2.717,3.724,3.527,7.921,4.387,8.952s2.4-.226,3.132-2.278S102.594,87.6,101.885,76.059ZM54.009,49.344c-1.486.915-5.141.617-8.937,2.729s-3.416-.936-1.884-2.412c0,0,3.358-3.716,7.756-3.875S55.494,48.429,54.009,49.344Zm8.117,61.7a2.941,2.941,0,0,1,2.273,3.206c-.073,2.07-.828,4.71-2.631,4.052,0,0-1.724-.049-1.935-3.25S61.22,110.944,62.126,111.043ZM51.06,119.471s-1.145-.335-.727-2.514,1.646-2.507,2.236-2.282a2.035,2.035,0,0,1,.961,2.544C53.118,118.591,52.152,120.227,51.06,119.471ZM92.019,64.2a2.94,2.94,0,0,1-3.89.559c-1.808-1.01-3.812-2.886-2.4-4.19,0,0,.831-1.511,3.775-.238S92.521,63.441,92.019,64.2ZM94.559,82.49c-.884-.907-1.254-3.545-3.355-5.9s1.553-3.212,2.843-2.362c0,0,3.167,1.789,3.98,4.881S95.443,83.4,94.559,82.49Z" fill="#00c2c5"/>
    <path id="Path_2644" data-name="Path 2644" d="M69.922,77.776a73.753,73.753,0,0,0,9.559,10.151c4.787,3.9,10.888,11.3,11.7,20.443,0,0,.569-10.439-11.239-21.139,0,0-4.21-2.972-9.437-10.688,1.632-3.486,3.264-7.086,3.8-8.328,6.2,6.253,18.914,11.909,18.914,11.909C81.378,74.063,75.75,68.338,74.751,67.264c.342-.634.836-1.47,1.2-2.264a23.441,23.441,0,0,0,7.513,2.221c3.4.368,12.273,1.159,17.442,3.976a41.324,41.324,0,0,0-7.838-3.285c-3.642-.971-12-1.28-16.743-3.9.024-.087.045-.173.061-.255,1.342-.788,7.872-4.505,13.2-5.454,5.972-1.063,7.272.273,7.272.273s-.863-1.969-7.639-.839a38.188,38.188,0,0,0-10.894,3.909c-.183.088-.359.172-.46.23-1.088.629-.4-.577-.4-.577L87.3,42.29l-2.923-1.352s-7.8,18.669-8.28,19.86c-.121.3-.379.7-.589.352a10.478,10.478,0,0,1-1.074-1.461c-1.813-2.89-7.326-7.343-7.326-7.343a58.66,58.66,0,0,1,8.246,9.962L61.716,54.773s11.464,7.42,13.053,8.465a4.966,4.966,0,0,0-.876,1.794,62.749,62.749,0,0,1-9.473-1.866C60.8,61.99,52.062,62.048,52.062,62.048s8.864.781,12.572,1.915a56.283,56.283,0,0,0,8.843,2.221c-.6,1.532-1.7,4.019-3,6.935a41.158,41.158,0,0,0-18.8-.35c-9.841,2.388-13.716,8.746-13.716,8.746s4.408-5.661,13.617-8.063c7.745-2.021,16.026-.029,18.463.655-1.784,4.008-3.856,8.663-5.5,12.693a34.667,34.667,0,0,0-26.18,14.857c11.313-13.611,24.18-13.831,25.755-13.805-1.684,4.2-4.659,12.019-7.311,19.049a19.748,19.748,0,0,0-8.843,8.9,22.683,22.683,0,0,1,8.405-7.736c-2.716,7.209-4.984,13.3-4.984,13.3s5.4-12.711,7.751-18.452c2.9,5.816,3.058,13.323,3.058,13.323a30.107,30.107,0,0,0-2.6-14.457c.207-.515.37-.926.475-1.205.571-1.513,1.962-5.094,3.457-8.755,1.245,1.749,8,11.708,9.023,23.369,0,0-1.139-15.815-8.613-24.373,1.316-3.2,2.66-6.319,3.552-8.041C68.123,81.542,69,79.725,69.922,77.776Z" transform="translate(-5.793 -1.012)" fill="#00c2c5"/>
    <path id="Path_2645" data-name="Path 2645" d="M94.45,78.481c3.467,1.275,6.326,2.279,9.45,7.846a3.894,3.894,0,0,0,1.551,1.3,37.83,37.83,0,0,1,8.983,7.621c2.981,3.715,3.87,7.9,4.813,8.933s2.629-.226,3.436-2.273,2.963-12.75,2.185-24.266-4.917-18.135-9.019-21.422-10.967-4.8-15.033-1.941a67.834,67.834,0,0,0-8.945,7.58l10.993-19.041-1.843-.764L81.982,79.577s-3.6,6.407-9.582,20.375c-4.533,10.581-9.284,21.022-11.322,25.466l.015.013s2.527,1.041,8.115-1.253,9.251-1.315,14.209-2.009a32.289,32.289,0,0,0,9.873-3.495s-.389-6.263-2.831-10.741-7.583-12.579-7.684-16.15,4.894-5.768,9.571.089,8.96,17.143,8.755,27.327c0,0,6.145-1.895,9.871-6.311s4.1-5.161,3.954-6-3.881-7.474-9.221-13.258A146.682,146.682,0,0,0,93.4,81.748C91.432,80.1,90.984,77.206,94.45,78.481Zm21.819-2.666s3.475,1.785,4.367,4.87-2.835,4.279-3.805,3.373-1.376-3.537-3.681-5.887S114.854,74.967,116.269,75.815Zm-9.131-13.628s.911-1.507,4.142-.237,3.314,3.1,2.764,3.861a3.442,3.442,0,0,1-4.268.558C107.792,65.36,105.593,63.488,107.138,62.187ZM81.243,112.549a3,3,0,0,1,2.494,3.2c-.081,2.066-.909,4.7-2.887,4.043,0,0-1.891-.049-2.123-3.243S80.249,112.45,81.243,112.549ZM69.1,120.958s-1.257-.334-.8-2.508,1.807-2.5,2.453-2.277a1.968,1.968,0,0,1,1.055,2.539C71.359,120.081,70.3,121.712,69.1,120.958Z" transform="translate(-22.999 -1.477)" fill="#00c2c5" opacity="0.3"/>
  </g>
</svg>
