<svg id="shop" xmlns="http://www.w3.org/2000/svg" width="56" height="56" viewBox="0 0 56 56">
  <path id="Path_13334" data-name="Path 13334" d="M28,0A28,28,0,1,1,0,28,28,28,0,0,1,28,0Z" fill="#00c2c5"/>
  <path id="kosik" d="M7.916,20.11a2.139,2.139,0,1,0,2.139,2.139A2.136,2.136,0,0,0,7.916,20.11ZM1.5,3V5.139H3.639l3.85,8.117-1.444,2.62A2.068,2.068,0,0,0,5.778,16.9a2.145,2.145,0,0,0,2.139,2.139H20.749V16.9H8.365a.265.265,0,0,1-.267-.267l.032-.128.962-1.743H17.06a2.129,2.129,0,0,0,1.871-1.1l3.828-6.94a1.045,1.045,0,0,0,.128-.513,1.073,1.073,0,0,0-1.069-1.069H6L5,3ZM18.61,20.11a2.139,2.139,0,1,0,2.139,2.139A2.136,2.136,0,0,0,18.61,20.11Z" transform="translate(16.137 14.637)" fill="#fff"/>
</svg>
