<svg xmlns="http://www.w3.org/2000/svg" width="17.491" height="17.491" viewBox="0 0 17.491 17.491">
  <g id="insta" transform="translate(0)">
    <path id="Path_1517" data-name="Path 1517" d="M343.33,319.679c-2.178,0-2.485.012-3.389.053a6.406,6.406,0,0,0-2.123.406,4.476,4.476,0,0,0-2.558,2.558,6.42,6.42,0,0,0-.407,2.123c-.043.933-.052,1.23-.052,3.606s.01,2.673.052,3.605a6.42,6.42,0,0,0,.407,2.123,4.471,4.471,0,0,0,2.558,2.558,6.42,6.42,0,0,0,2.123.407c.933.043,1.23.053,3.606.053s2.673-.01,3.605-.053a6.417,6.417,0,0,0,2.123-.407,4.467,4.467,0,0,0,2.558-2.558,6.409,6.409,0,0,0,.407-2.123c.042-.9.052-1.211.053-3.389v-.433c0-2.178-.011-2.485-.053-3.389a6.409,6.409,0,0,0-.407-2.123,4.471,4.471,0,0,0-2.558-2.558,6.4,6.4,0,0,0-2.123-.406c-.9-.041-1.211-.052-3.389-.053Zm5.935,4.077a1.049,1.049,0,1,1-1.049-1.049,1.049,1.049,0,0,1,1.049,1.049Zm-5.718,7.584a2.915,2.915,0,1,1,2.915-2.915,2.915,2.915,0,0,1-2.915,2.915Zm0-7.406a4.491,4.491,0,1,1-4.491,4.491,4.491,4.491,0,0,1,4.491-4.491Zm0-2.679c2.335,0,2.612.009,3.533.051a4.846,4.846,0,0,1,1.624.3,2.9,2.9,0,0,1,1.66,1.66,4.838,4.838,0,0,1,.3,1.624c.042.922.051,1.2.051,3.534s-.009,2.612-.051,3.534a4.846,4.846,0,0,1-.3,1.624,2.893,2.893,0,0,1-1.66,1.659,4.829,4.829,0,0,1-1.624.3c-.922.042-1.2.051-3.533.051s-2.612-.009-3.534-.051a4.822,4.822,0,0,1-1.624-.3,2.893,2.893,0,0,1-1.66-1.659,4.828,4.828,0,0,1-.3-1.624c-.042-.922-.051-1.2-.051-3.534s.009-2.612.051-3.534a4.82,4.82,0,0,1,.3-1.624,2.9,2.9,0,0,1,1.66-1.66,4.838,4.838,0,0,1,1.624-.3C340.935,321.264,341.211,321.255,343.547,321.255Z" transform="translate(-334.801 -319.679)" fill-rule="evenodd"/>
  </g>
</svg>
