<svg xmlns="http://www.w3.org/2000/svg" width="14" height="11.2" viewBox="0 0 14 11.2">
  <path id="email" d="M15.6,6H4.4A1.4,1.4,0,0,0,3.007,7.4L3,15.8a1.4,1.4,0,0,0,1.4,1.4H15.6A1.4,1.4,0,0,0,17,15.8V7.4A1.4,1.4,0,0,0,15.6,6Zm0,2.8L10,12.3,4.4,8.8V7.4L10,10.9l5.6-3.5Z" transform="translate(-3 -6)" fill="#00c2c5"/>
</svg>
